%YAML 1.1
%TAG !u! tag:unity3d.com,2011:
--- !u!114 &11400000
MonoBehaviour:
  m_ObjectHideFlags: 0
  m_CorrespondingSourceObject: {fileID: 0}
  m_PrefabInstance: {fileID: 0}
  m_PrefabAsset: {fileID: 0}
  m_GameObject: {fileID: 0}
  m_Enabled: 1
  m_EditorHideFlags: 0
  m_Script: {fileID: 11500000, guid: 95e66c6366d904e98bc83428217d4fd7, type: 3}
  m_Name: CapsuleMovement
  m_EditorClassIdentifier: 
  _data:
    _json: '{"graph":{"variables":{"Kind":"Flow","collection":{"$content":[],"$version":"A"},"$version":"A"},"controlInputDefinitions":[],"controlOutputDefinitions":[],"valueInputDefinitions":[],"valueOutputDefinitions":[],"title":"CapsuleMovement","summary":null,"pan":{"x":0.0,"y":67.85292},"zoom":1.0,"elements":[{"coroutine":false,"defaultValues":{},"position":{"x":-550.0,"y":-229.0},"guid":"adb0960f-a9de-488a-9582-a9987aea0b91","$version":"A","$type":"Unity.VisualScripting.Update","$id":"9"},{"chainable":false,"parameterNames":["vector","maxLength"],"member":{"name":"ClampMagnitude","parameterTypes":["UnityEngine.Vector3","System.Single"],"targetType":"UnityEngine.Vector3","targetTypeName":"UnityEngine.Vector3","$version":"A"},"defaultValues":{"%vector":{"x":0.0,"y":0.0,"z":0.0,"$type":"UnityEngine.Vector3"},"%maxLength":{"$content":1.0,"$type":"System.Single"}},"position":{"x":-313.0,"y":-238.0},"guid":"959f6f55-ecdf-4175-a55e-440ef552b0b6","$version":"A","$type":"Unity.VisualScripting.InvokeMember","$id":"11"},{"chainable":false,"parameterNames":["translation"],"member":{"name":"Translate","parameterTypes":["UnityEngine.Vector3"],"targetType":"UnityEngine.Transform","targetTypeName":"UnityEngine.Transform","$version":"A"},"defaultValues":{"target":null,"%translation":{"x":0.0,"y":0.0,"z":0.0,"$type":"UnityEngine.Vector3"}},"position":{"x":214.0,"y":-237.0},"guid":"a0f68164-9f20-4837-af91-a9855fafdc6e","$version":"A","$type":"Unity.VisualScripting.InvokeMember","$id":"15"},{"specifyFallback":false,"kind":"Object","defaultValues":{"name":{"$content":"MoveAxis","$type":"System.String"},"object":null},"position":{"x":-612.0,"y":51.0},"guid":"a281a4fa-cc5a-458e-a4ff-618c8f7cf803","$version":"A","$type":"Unity.VisualScripting.GetVariable","$id":"19"},{"specifyFallback":false,"kind":"Object","defaultValues":{"name":{"$content":"MoveSpeed","$type":"System.String"},"object":null},"position":{"x":-318.0,"y":58.0},"guid":"3b1d25f5-60b6-4965-993d-259fbb115e39","$version":"A","$type":"Unity.VisualScripting.GetVariable","$id":"21"},{"defaultValues":{},"position":{"x":103.0,"y":-9.0},"guid":"6ef19623-810c-477f-9856-380045773b07","$version":"A","$type":"Unity.VisualScripting.GenericMultiply","$id":"23"},{"member":{"name":"deltaTime","parameterTypes":null,"targetType":"UnityEngine.Time","targetTypeName":"UnityEngine.Time","$version":"A"},"defaultValues":{},"position":{"x":-333.0,"y":228.0},"guid":"493f18f5-6695-4c5f-b3bf-688815c5125a","$version":"A","$type":"Unity.VisualScripting.GetMember","$id":"25"},{"defaultValues":{"b":{"$content":1.0,"$type":"System.Single"}},"position":{"x":-75.0,"y":95.0},"guid":"34ed1c2c-4db9-4238-9bac-48b6ef8d421c","$version":"A","$type":"Unity.VisualScripting.ScalarMultiply","$id":"28"},{"sourceUnit":{"$ref":"11"},"sourceKey":"exit","destinationUnit":{"$ref":"15"},"destinationKey":"enter","guid":"4bcbb604-2093-40b9-92e6-b36b2a16851d","$type":"Unity.VisualScripting.ControlConnection"},{"sourceUnit":{"$ref":"9"},"sourceKey":"trigger","destinationUnit":{"$ref":"11"},"destinationKey":"enter","guid":"ed0f55ce-6c82-4030-99d0-6fbbe10e17b2","$type":"Unity.VisualScripting.ControlConnection"},{"sourceUnit":{"$ref":"19"},"sourceKey":"value","destinationUnit":{"$ref":"11"},"destinationKey":"%vector","guid":"5054d417-ac55-4a3b-9dbf-ec4884f10dbd","$type":"Unity.VisualScripting.ValueConnection"},{"sourceUnit":{"$ref":"11"},"sourceKey":"result","destinationUnit":{"$ref":"23"},"destinationKey":"a","guid":"55443f17-1ee2-4399-a240-e6a4ba3c3751","$type":"Unity.VisualScripting.ValueConnection"},{"sourceUnit":{"$ref":"23"},"sourceKey":"product","destinationUnit":{"$ref":"15"},"destinationKey":"%translation","guid":"148a4dd8-8632-4a03-832a-cf4fb56065f3","$type":"Unity.VisualScripting.ValueConnection"},{"sourceUnit":{"$ref":"28"},"sourceKey":"product","destinationUnit":{"$ref":"23"},"destinationKey":"b","guid":"45cf0e7e-dece-4c52-b9ac-0d2db24113df","$type":"Unity.VisualScripting.ValueConnection"},{"sourceUnit":{"$ref":"21"},"sourceKey":"value","destinationUnit":{"$ref":"28"},"destinationKey":"a","guid":"ef49b472-4aca-404e-8e90-592d404fe4d7","$type":"Unity.VisualScripting.ValueConnection"},{"sourceUnit":{"$ref":"25"},"sourceKey":"value","destinationUnit":{"$ref":"28"},"destinationKey":"b","guid":"5799032f-d0be-4c43-aaa2-9c4a140fdfea","$type":"Unity.VisualScripting.ValueConnection"}],"$version":"A"}}'
    _objectReferences: []
