%YAML 1.1
%TAG !u! tag:unity3d.com,2011:
--- !u!114 &11400000
MonoBehaviour:
  m_ObjectHideFlags: 0
  m_CorrespondingSourceObject: {fileID: 0}
  m_PrefabInstance: {fileID: 0}
  m_PrefabAsset: {fileID: 0}
  m_GameObject: {fileID: 0}
  m_Enabled: 1
  m_EditorHideFlags: 0
  m_Script: {fileID: 11500000, guid: 95e66c6366d904e98bc83428217d4fd7, type: 3}
  m_Name: PlayerTankMovement
  m_EditorClassIdentifier: 
  _data:
    _json: '{"graph":{"variables":{"Kind":"Flow","collection":{"$content":[],"$version":"A"},"$version":"A"},"controlInputDefinitions":[],"controlOutputDefinitions":[],"valueInputDefinitions":[],"valueOutputDefinitions":[],"title":"PlayeTank2","summary":null,"pan":{"x":170.3621,"y":-93.85255},"zoom":0.8000001,"elements":[{"chainable":false,"parameterNames":["axisName"],"member":{"name":"GetAxis","parameterTypes":["System.String"],"targetType":"UnityEngine.Input","targetTypeName":"UnityEngine.Input","$version":"A"},"defaultValues":{"%axisName":{"$content":"Vertical","$type":"System.String"}},"position":{"x":-409.0,"y":-238.0},"guid":"a2cbb3c5-2f3a-4280-892f-e827d20fbae2","$version":"A","$type":"Unity.VisualScripting.InvokeMember","$id":"9"},{"defaultValues":{},"position":{"x":-28.0,"y":-252.0},"guid":"76e21912-685e-40c5-b083-4a12c90159c6","$version":"A","$type":"Unity.VisualScripting.GenericMultiply","$id":"13"},{"specifyFallback":false,"kind":"Object","defaultValues":{"name":{"$content":"MoveSpeed","$type":"System.String"},"object":null},"position":{"x":-397.0,"y":-89.0},"guid":"c7060a32-2bce-438b-a290-769d1e9660fe","$version":"A","$type":"Unity.VisualScripting.GetVariable","$id":"15"},{"chainable":false,"parameterNames":["x","y","z"],"member":{"name":"Translate","parameterTypes":["System.Single","System.Single","System.Single"],"targetType":"UnityEngine.Transform","targetTypeName":"UnityEngine.Transform","$version":"A"},"defaultValues":{"target":null,"%x":{"$content":0.0,"$type":"System.Single"},"%y":{"$content":0.0,"$type":"System.Single"},"%z":{"$content":0.0,"$type":"System.Single"}},"position":{"x":363.0,"y":-255.0},"guid":"18d46f6a-1d6f-4f43-a27c-818353688269","$version":"A","$type":"Unity.VisualScripting.InvokeMember","$id":"17"},{"coroutine":false,"defaultValues":{},"position":{"x":138.0,"y":-421.0},"guid":"e91a1718-26b2-4cb3-93f5-e5d61f08d378","$version":"A","$type":"Unity.VisualScripting.Update","$id":"21"},{"chainable":false,"parameterNames":["axis","angle"],"member":{"name":"Rotate","parameterTypes":["UnityEngine.Vector3","System.Single"],"targetType":"UnityEngine.Transform","targetTypeName":"UnityEngine.Transform","$version":"A"},"defaultValues":{"target":null,"%axis":{"x":0.0,"y":1.0,"z":0.0,"$type":"UnityEngine.Vector3"},"%angle":{"$content":0.0,"$type":"System.Single"}},"position":{"x":683.0,"y":-261.0},"guid":"6d599194-8bcd-446b-8208-5a11bc38f2ba","$version":"A","$type":"Unity.VisualScripting.InvokeMember","$id":"23"},{"chainable":false,"parameterNames":["axisName"],"member":{"name":"GetAxis","parameterTypes":["System.String"],"targetType":"UnityEngine.Input","targetTypeName":"UnityEngine.Input","$version":"A"},"defaultValues":{"%axisName":{"$content":"Horizontal","$type":"System.String"}},"position":{"x":10.0,"y":56.0},"guid":"a6105ad6-4590-47d3-aa71-541eb7bbd2bd","$version":"A","$type":"Unity.VisualScripting.InvokeMember","$id":"27"},{"specifyFallback":false,"kind":"Object","defaultValues":{"name":{"$content":"RotationSpeed","$type":"System.String"},"object":null},"position":{"x":41.0,"y":203.0},"guid":"683b7e24-f65f-4b83-bde3-dc6f85543bc4","$version":"A","$type":"Unity.VisualScripting.GetVariable","$id":"31"},{"defaultValues":{},"position":{"x":318.0,"y":120.0},"guid":"e41ffd8b-4c5a-4a9e-8cb5-58963bb9e4b2","$version":"A","$type":"Unity.VisualScripting.GenericMultiply","$id":"33"},{"member":{"name":"deltaTime","parameterTypes":null,"targetType":"UnityEngine.Time","targetTypeName":"UnityEngine.Time","$version":"A"},"defaultValues":{},"position":{"x":-79.0,"y":-67.0},"guid":"28d6dd1e-08b9-4f98-a5c6-288d256b4fba","$version":"A","$type":"Unity.VisualScripting.GetMember","$id":"35"},{"defaultValues":{},"position":{"x":145.0,"y":-200.0},"guid":"54750d41-caef-4fd8-a786-f3839ebe9ad8","$version":"A","$type":"Unity.VisualScripting.GenericMultiply","$id":"38"},{"defaultValues":{},"position":{"x":532.0,"y":106.0},"guid":"bc79cda7-e8f7-4fd1-9404-05ca8e71df6d","$version":"A","$type":"Unity.VisualScripting.GenericMultiply","$id":"40"},{"member":{"name":"deltaTime","parameterTypes":null,"targetType":"UnityEngine.Time","targetTypeName":"UnityEngine.Time","$version":"A"},"defaultValues":{},"position":{"x":321.0,"y":285.0},"guid":"b94dfa35-79bb-4740-aa57-7688e640199b","$version":"A","$type":"Unity.VisualScripting.GetMember","$id":"42"},{"sourceUnit":{"$ref":"21"},"sourceKey":"trigger","destinationUnit":{"$ref":"17"},"destinationKey":"enter","guid":"05cc9459-81b3-4f54-9f8f-489c7a5b4ee7","$type":"Unity.VisualScripting.ControlConnection"},{"sourceUnit":{"$ref":"17"},"sourceKey":"exit","destinationUnit":{"$ref":"23"},"destinationKey":"enter","guid":"3f743687-9fab-4c83-9567-4e79996a2671","$type":"Unity.VisualScripting.ControlConnection"},{"sourceUnit":{"$ref":"27"},"sourceKey":"result","destinationUnit":{"$ref":"33"},"destinationKey":"a","guid":"42f94c75-d3f4-435e-ba58-83f078f7ddf3","$type":"Unity.VisualScripting.ValueConnection"},{"sourceUnit":{"$ref":"31"},"sourceKey":"value","destinationUnit":{"$ref":"33"},"destinationKey":"b","guid":"b7885a32-deeb-4ffc-835d-4c128cec9310","$type":"Unity.VisualScripting.ValueConnection"},{"sourceUnit":{"$ref":"9"},"sourceKey":"result","destinationUnit":{"$ref":"13"},"destinationKey":"a","guid":"d1c68236-d282-4119-aab5-74a5c6174564","$type":"Unity.VisualScripting.ValueConnection"},{"sourceUnit":{"$ref":"15"},"sourceKey":"value","destinationUnit":{"$ref":"13"},"destinationKey":"b","guid":"36f5073c-a913-4c78-a0cd-9668d03ad0c9","$type":"Unity.VisualScripting.ValueConnection"},{"sourceUnit":{"$ref":"35"},"sourceKey":"value","destinationUnit":{"$ref":"38"},"destinationKey":"b","guid":"f9b6d3e9-46d0-4fd0-a039-17d3b258f950","$type":"Unity.VisualScripting.ValueConnection"},{"sourceUnit":{"$ref":"13"},"sourceKey":"product","destinationUnit":{"$ref":"38"},"destinationKey":"a","guid":"a0d58dc8-ef3b-4e06-89a9-77a9c3e750dd","$type":"Unity.VisualScripting.ValueConnection"},{"sourceUnit":{"$ref":"38"},"sourceKey":"product","destinationUnit":{"$ref":"17"},"destinationKey":"%z","guid":"b1196fe7-5861-44aa-8fb4-0f6088c02ac0","$type":"Unity.VisualScripting.ValueConnection"},{"sourceUnit":{"$ref":"33"},"sourceKey":"product","destinationUnit":{"$ref":"40"},"destinationKey":"a","guid":"24b87da5-b2e5-476a-8b33-ef2aecd7b346","$type":"Unity.VisualScripting.ValueConnection"},{"sourceUnit":{"$ref":"42"},"sourceKey":"value","destinationUnit":{"$ref":"40"},"destinationKey":"b","guid":"769631ce-011a-43fd-8b00-755013d44ded","$type":"Unity.VisualScripting.ValueConnection"},{"sourceUnit":{"$ref":"40"},"sourceKey":"product","destinationUnit":{"$ref":"23"},"destinationKey":"%angle","guid":"c476269c-1f8f-46fe-83a8-f7c5218cd80f","$type":"Unity.VisualScripting.ValueConnection"}],"$version":"A"}}'
    _objectReferences: []
