%YAML 1.1
%TAG !u! tag:unity3d.com,2011:
--- !u!114 &11400000
MonoBehaviour:
  m_ObjectHideFlags: 0
  m_CorrespondingSourceObject: {fileID: 0}
  m_PrefabInstance: {fileID: 0}
  m_PrefabAsset: {fileID: 0}
  m_GameObject: {fileID: 0}
  m_Enabled: 1
  m_EditorHideFlags: 0
  m_Script: {fileID: 11500000, guid: 95e66c6366d904e98bc83428217d4fd7, type: 3}
  m_Name: PlayerFPSController
  m_EditorClassIdentifier: 
  _data:
    _json: '{"graph":{"variables":{"Kind":"Flow","collection":{"$content":[],"$version":"A"},"$version":"A"},"controlInputDefinitions":[],"controlOutputDefinitions":[],"valueInputDefinitions":[],"valueOutputDefinitions":[],"title":"FPS
      Controller","summary":null,"pan":{"x":-367.8333,"y":544.5},"zoom":1.0,"elements":[{"coroutine":false,"defaultValues":{},"position":{"x":-1370.0,"y":-616.0},"guid":"ed249c6f-d20d-4e9a-ac9d-0828b6d18fc3","$version":"A","$type":"Unity.VisualScripting.Update","$id":"9"},{"chainable":false,"parameterNames":["axisName"],"member":{"name":"GetAxisRaw","parameterTypes":["System.String"],"targetType":"UnityEngine.Input","targetTypeName":"UnityEngine.Input","$version":"A"},"defaultValues":{"%axisName":{"$content":"Horizontal","$type":"System.String"}},"position":{"x":-1073.0,"y":-617.0},"guid":"eae48f97-72ba-4d20-8b0d-070591bdd6d2","$version":"A","$type":"Unity.VisualScripting.InvokeMember","$id":"11"},{"defaultValues":{},"position":{"x":-744.0,"y":-46.0},"guid":"da55d256-cf0e-48e3-91d9-0cff84860413","$version":"A","$type":"Unity.VisualScripting.GenericMultiply","$id":"15"},{"chainable":false,"parameterNames":["translation"],"member":{"name":"Translate","parameterTypes":["UnityEngine.Vector3"],"targetType":"UnityEngine.Transform","targetTypeName":"UnityEngine.Transform","$version":"A"},"defaultValues":{"target":null,"%translation":{"x":0.0,"y":0.0,"z":0.0,"$type":"UnityEngine.Vector3"}},"position":{"x":-132.0,"y":-401.0},"guid":"8722a2b9-b912-4929-b5ea-a8e55ea13fef","$version":"A","$type":"Unity.VisualScripting.InvokeMember","$id":"17"},{"specifyFallback":false,"kind":"Object","defaultValues":{"name":{"$content":"walkSpeed","$type":"System.String"},"object":null},"position":{"x":-1017.0,"y":-96.0},"guid":"eff1d50c-79ae-46f4-94b2-6d72609dc24e","$version":"A","$type":"Unity.VisualScripting.GetVariable","$id":"21"},{"member":{"name":"deltaTime","parameterTypes":null,"targetType":"UnityEngine.Time","targetTypeName":"UnityEngine.Time","$version":"A"},"defaultValues":{},"position":{"x":-979.0,"y":80.0},"guid":"c8217bf0-0577-4cce-a549-d2477edfbe40","$version":"A","$type":"Unity.VisualScripting.GetMember","$id":"23"},{"member":{"name":"right","parameterTypes":null,"targetType":"UnityEngine.Vector3","targetTypeName":"UnityEngine.Vector3","$version":"A"},"defaultValues":{},"position":{"x":-1444.0,"y":-290.0},"guid":"bf41dbff-ea9d-4469-843e-c0f228dd7b6b","$version":"A","$type":"Unity.VisualScripting.GetMember","$id":"26"},{"kind":"Flow","defaultValues":{"name":{"$content":"hMovement","$type":"System.String"}},"position":{"x":-796.0,"y":-683.0},"guid":"f7bc7131-092d-4a0d-b8eb-66dbfc4cce30","$version":"A","$type":"Unity.VisualScripting.SetVariable","$id":"29"},{"specifyFallback":false,"kind":"Flow","defaultValues":{"name":{"$content":"vMovement","$type":"System.String"}},"position":{"x":-1485.0,"y":-155.0},"guid":"abb4cb83-7f8c-4acf-bc6e-202be9e627cf","$version":"A","$type":"Unity.VisualScripting.GetVariable","$id":"31"},{"member":{"name":"forward","parameterTypes":null,"targetType":"UnityEngine.Vector3","targetTypeName":"UnityEngine.Vector3","$version":"A"},"defaultValues":{},"position":{"x":-1483.0,"y":-26.0},"guid":"b03f2bb0-cfca-40e5-94ea-30724860c71a","$version":"A","$type":"Unity.VisualScripting.GetMember","$id":"33"},{"kind":"Flow","defaultValues":{"name":{"$content":"vMovement","$type":"System.String"}},"position":{"x":-301.0,"y":-712.0},"guid":"70ea3f32-d2ac-4b73-90f7-4f0a569515f8","$version":"A","$type":"Unity.VisualScripting.SetVariable","$id":"36"},{"specifyFallback":false,"kind":"Flow","defaultValues":{"name":{"$content":"hMovement","$type":"System.String"}},"position":{"x":-1459.0,"y":-427.0},"guid":"6beefad9-66ee-45b5-aa9c-b13ed786b06a","$version":"A","$type":"Unity.VisualScripting.GetVariable","$id":"38"},{"chainable":false,"parameterNames":["axisName"],"member":{"name":"GetAxisRaw","parameterTypes":["System.String"],"targetType":"UnityEngine.Input","targetTypeName":"UnityEngine.Input","$version":"A"},"defaultValues":{"%axisName":{"$content":"Vertical","$type":"System.String"}},"position":{"x":-563.0,"y":-663.0},"guid":"a01bd372-77ad-46bf-bce9-fa1e3567f9b3","$version":"A","$type":"Unity.VisualScripting.InvokeMember","$id":"40"},{"defaultValues":{},"position":{"x":-1128.0,"y":-340.0},"guid":"493470c0-9b81-49a6-ae2a-157e1c6cbd70","$version":"A","$type":"Unity.VisualScripting.GenericMultiply","$id":"44"},{"defaultValues":{},"position":{"x":-442.0,"y":-191.0},"guid":"ece32e8b-758a-49f1-a667-b923ebbbf5eb","$version":"A","$type":"Unity.VisualScripting.GenericMultiply","$id":"46"},{"inputCount":2,"defaultValues":{},"position":{"x":-830.0,"y":-269.0},"guid":"3d98dcad-5526-48a6-8dc1-57cc0930b348","$version":"A","$type":"Unity.VisualScripting.GenericSum","$id":"48"},{"defaultValues":{},"position":{"x":-1575.0,"y":616.0},"guid":"517f2369-c1ac-41f1-859e-94061d3695f0","$version":"A","$type":"Unity.VisualScripting.GenericMultiply","$id":"50"},{"defaultValues":{},"position":{"x":-1393.0,"y":530.0},"guid":"2e8b5af2-3d0c-47ff-9297-60884f6a4508","$version":"A","$type":"Unity.VisualScripting.GenericMultiply","$id":"52"},{"specifyFallback":false,"kind":"Object","defaultValues":{"name":{"$content":"hRotationSpeed","$type":"System.String"},"object":null},"position":{"x":-1867.0,"y":596.0},"guid":"d20ae2e9-678e-4993-8d7c-22da96538755","$version":"A","$type":"Unity.VisualScripting.GetVariable","$id":"54"},{"member":{"name":"deltaTime","parameterTypes":null,"targetType":"UnityEngine.Time","targetTypeName":"UnityEngine.Time","$version":"A"},"defaultValues":{},"position":{"x":-1773.0,"y":745.0},"guid":"d4a58ffb-3356-45c9-a4eb-f42f748b9964","$version":"A","$type":"Unity.VisualScripting.GetMember","$id":"56"},{"chainable":false,"parameterNames":["axisName"],"member":{"name":"GetAxis","parameterTypes":["System.String"],"targetType":"UnityEngine.Input","targetTypeName":"UnityEngine.Input","$version":"A"},"defaultValues":{"%axisName":{"$content":"Mouse
      X","$type":"System.String"}},"position":{"x":-1641.0,"y":385.0},"guid":"b3340693-e046-4738-ba99-4224211d98ef","$version":"A","$type":"Unity.VisualScripting.InvokeMember","$id":"59"},{"defaultValues":{},"position":{"x":-1238.0,"y":-154.0},"guid":"5396c0c3-530e-410c-b4a8-5425436fa587","$version":"A","$type":"Unity.VisualScripting.GenericMultiply","$id":"63"},{"specifyFallback":false,"kind":"Object","defaultValues":{"name":{"$content":"hPlayerRotation","$type":"System.String"},"object":null},"position":{"x":-1402.0,"y":665.0},"guid":"0265d626-38cf-47e3-96a3-45e3fa5b79de","$version":"A","$type":"Unity.VisualScripting.GetVariable","$id":"65"},{"coroutine":false,"defaultValues":{},"position":{"x":-1897.0,"y":402.0},"guid":"8c49a806-a28d-48ea-a0be-3624868f0804","$version":"A","$type":"Unity.VisualScripting.Update","$id":"67"},{"defaultValues":{},"position":{"x":-1161.0,"y":608.0},"guid":"b5c577c6-d96f-4a1d-a21a-0b187793c296","$version":"A","$type":"Unity.VisualScripting.GenericMultiply","$id":"69"},{"chainable":false,"parameterNames":["xAngle","yAngle","zAngle"],"member":{"name":"Rotate","parameterTypes":["System.Single","System.Single","System.Single"],"targetType":"UnityEngine.Transform","targetTypeName":"UnityEngine.Transform","$version":"A"},"defaultValues":{"target":null,"%xAngle":{"$content":0.0,"$type":"System.Single"},"%yAngle":{"$content":0.0,"$type":"System.Single"},"%zAngle":{"$content":0.0,"$type":"System.Single"}},"position":{"x":-999.0,"y":403.0},"guid":"790930b0-2f0c-43f2-a90c-6f864df01f3d","$version":"A","$type":"Unity.VisualScripting.InvokeMember","$id":"71"},{"defaultValues":{},"position":{"x":-450.0,"y":533.0},"guid":"ed817b7c-a216-4ec1-89c4-71cd3d2d894e","$version":"A","$type":"Unity.VisualScripting.GenericMultiply","$id":"75"},{"defaultValues":{},"position":{"x":-268.0,"y":447.0},"guid":"5373ffaa-e03f-483d-9d53-59a05c682719","$version":"A","$type":"Unity.VisualScripting.GenericMultiply","$id":"77"},{"specifyFallback":false,"kind":"Object","defaultValues":{"name":{"$content":"hRotationSpeed","$type":"System.String"},"object":null},"position":{"x":-742.0,"y":513.0},"guid":"d7230b7c-48f1-4c03-97f7-55389b856e46","$version":"A","$type":"Unity.VisualScripting.GetVariable","$id":"79"},{"member":{"name":"deltaTime","parameterTypes":null,"targetType":"UnityEngine.Time","targetTypeName":"UnityEngine.Time","$version":"A"},"defaultValues":{},"position":{"x":-648.0,"y":662.0},"guid":"501aba7c-e76e-4b9f-a10a-1f0dfeaaedb8","$version":"A","$type":"Unity.VisualScripting.GetMember","$id":"81"},{"chainable":false,"parameterNames":["axisName"],"member":{"name":"GetAxis","parameterTypes":["System.String"],"targetType":"UnityEngine.Input","targetTypeName":"UnityEngine.Input","$version":"A"},"defaultValues":{"%axisName":{"$content":"Mouse
      Y","$type":"System.String"}},"position":{"x":-516.0,"y":302.0},"guid":"136ccc0c-a03f-4809-9fdf-b4dcfce226f0","$version":"A","$type":"Unity.VisualScripting.InvokeMember","$id":"84"},{"specifyFallback":false,"kind":"Object","defaultValues":{"name":{"$content":"vCamRotation","$type":"System.String"},"object":null},"position":{"x":-293.0,"y":677.0},"guid":"218681e1-5d15-4549-b076-9c3d459bdff9","$version":"A","$type":"Unity.VisualScripting.GetVariable","$id":"88"},{"coroutine":false,"defaultValues":{},"position":{"x":-772.0,"y":319.0},"guid":"3a0dcba4-546d-411f-9db8-bd108a1950cc","$version":"A","$type":"Unity.VisualScripting.Update","$id":"90"},{"defaultValues":{},"position":{"x":-36.0,"y":525.0},"guid":"f7bc4eeb-7d49-44c8-8b18-d5380d816499","$version":"A","$type":"Unity.VisualScripting.GenericMultiply","$id":"92"},{"chainable":false,"parameterNames":["xAngle","yAngle","zAngle"],"member":{"name":"Rotate","parameterTypes":["System.Single","System.Single","System.Single"],"targetType":"UnityEngine.Transform","targetTypeName":"UnityEngine.Transform","$version":"A"},"defaultValues":{"target":null,"%xAngle":{"$content":0.0,"$type":"System.Single"},"%yAngle":{"$content":0.0,"$type":"System.Single"},"%zAngle":{"$content":0.0,"$type":"System.Single"}},"position":{"x":203.0,"y":291.0},"guid":"03de829d-077d-4451-ac7e-39947fd895e8","$version":"A","$type":"Unity.VisualScripting.InvokeMember","$id":"94"},{"type":"System.Int32","value":{"$content":-1,"$type":"System.Int32"},"defaultValues":{},"position":{"x":-50.0,"y":713.0},"guid":"523805ec-5930-47d3-9e0b-1376863d01d3","$version":"A","$type":"Unity.VisualScripting.Literal","$id":"98"},{"member":{"name":"main","parameterTypes":null,"targetType":"UnityEngine.Camera","targetTypeName":"UnityEngine.Camera","$version":"A"},"defaultValues":{},"position":{"x":-136.0,"y":384.0},"guid":"90a04e44-b4c9-4d37-adcf-3e7cf8b3ae06","$version":"A","$type":"Unity.VisualScripting.GetMember","$id":"100"},{"defaultValues":{},"position":{"x":82.0,"y":608.0},"guid":"56176f35-8568-4374-9551-f4366fe706ff","$version":"A","$type":"Unity.VisualScripting.GenericMultiply","$id":"103"},{"sourceUnit":{"$ref":"36"},"sourceKey":"assigned","destinationUnit":{"$ref":"17"},"destinationKey":"enter","guid":"aca4a3b0-6820-4c67-96e5-fea3c6a43b2f","$type":"Unity.VisualScripting.ControlConnection"},{"sourceUnit":{"$ref":"9"},"sourceKey":"trigger","destinationUnit":{"$ref":"11"},"destinationKey":"enter","guid":"5aae2ab9-f8b7-4c75-a235-f56ff6f46812","$type":"Unity.VisualScripting.ControlConnection"},{"sourceUnit":{"$ref":"11"},"sourceKey":"exit","destinationUnit":{"$ref":"29"},"destinationKey":"assign","guid":"18300d7e-62cc-4c93-a9eb-26c42a25907c","$type":"Unity.VisualScripting.ControlConnection"},{"sourceUnit":{"$ref":"29"},"sourceKey":"assigned","destinationUnit":{"$ref":"40"},"destinationKey":"enter","guid":"a8619b3e-7ca9-4cd9-8af2-123860500d30","$type":"Unity.VisualScripting.ControlConnection"},{"sourceUnit":{"$ref":"40"},"sourceKey":"exit","destinationUnit":{"$ref":"36"},"destinationKey":"assign","guid":"6562a78e-ee91-4605-a8a2-524b304364b6","$type":"Unity.VisualScripting.ControlConnection"},{"sourceUnit":{"$ref":"67"},"sourceKey":"trigger","destinationUnit":{"$ref":"59"},"destinationKey":"enter","guid":"eba72c8f-f192-47dd-ad64-53807f2de81d","$type":"Unity.VisualScripting.ControlConnection"},{"sourceUnit":{"$ref":"59"},"sourceKey":"exit","destinationUnit":{"$ref":"71"},"destinationKey":"enter","guid":"b2decbfa-b9d0-46a7-910b-a7aa2aeedd08","$type":"Unity.VisualScripting.ControlConnection"},{"sourceUnit":{"$ref":"90"},"sourceKey":"trigger","destinationUnit":{"$ref":"84"},"destinationKey":"enter","guid":"4eeed29c-e4b8-4e68-a931-6f004ea1fc8e","$type":"Unity.VisualScripting.ControlConnection"},{"sourceUnit":{"$ref":"84"},"sourceKey":"exit","destinationUnit":{"$ref":"94"},"destinationKey":"enter","guid":"476ee3cf-f07f-4c40-b48f-6937fe1da163","$type":"Unity.VisualScripting.ControlConnection"},{"sourceUnit":{"$ref":"44"},"sourceKey":"product","destinationUnit":{"$ref":"48"},"destinationKey":"0","guid":"d859c956-1906-4faf-822c-ecc189850d8c","$type":"Unity.VisualScripting.ValueConnection"},{"sourceUnit":{"$ref":"26"},"sourceKey":"value","destinationUnit":{"$ref":"44"},"destinationKey":"b","guid":"d7b40a56-260f-4795-b39e-648313d87f38","$type":"Unity.VisualScripting.ValueConnection"},{"sourceUnit":{"$ref":"11"},"sourceKey":"result","destinationUnit":{"$ref":"29"},"destinationKey":"input","guid":"48309fd1-7ca0-4b85-91c8-c0eeaee6f95c","$type":"Unity.VisualScripting.ValueConnection"},{"sourceUnit":{"$ref":"23"},"sourceKey":"value","destinationUnit":{"$ref":"15"},"destinationKey":"b","guid":"ba440ab3-91d6-4285-a7be-b9b7e3ca8812","$type":"Unity.VisualScripting.ValueConnection"},{"sourceUnit":{"$ref":"56"},"sourceKey":"value","destinationUnit":{"$ref":"50"},"destinationKey":"b","guid":"c4e2e204-82b2-4fa7-b949-f9711fb1a943","$type":"Unity.VisualScripting.ValueConnection"},{"sourceUnit":{"$ref":"63"},"sourceKey":"product","destinationUnit":{"$ref":"48"},"destinationKey":"1","guid":"5b544e4c-7dcb-4568-8f03-808e8b2589f9","$type":"Unity.VisualScripting.ValueConnection"},{"sourceUnit":{"$ref":"38"},"sourceKey":"value","destinationUnit":{"$ref":"44"},"destinationKey":"a","guid":"7ae1318f-f087-4f11-b5c0-7095e5bbfd0f","$type":"Unity.VisualScripting.ValueConnection"},{"sourceUnit":{"$ref":"54"},"sourceKey":"value","destinationUnit":{"$ref":"50"},"destinationKey":"a","guid":"4c81faf4-4f47-4a87-a18f-a63dcd74098e","$type":"Unity.VisualScripting.ValueConnection"},{"sourceUnit":{"$ref":"31"},"sourceKey":"value","destinationUnit":{"$ref":"63"},"destinationKey":"a","guid":"d8ef3ff5-fc5f-4ccd-a1e4-2afe04fb037e","$type":"Unity.VisualScripting.ValueConnection"},{"sourceUnit":{"$ref":"48"},"sourceKey":"sum","destinationUnit":{"$ref":"46"},"destinationKey":"a","guid":"e28065f4-6f4b-4b0c-8247-721775a4bf5b","$type":"Unity.VisualScripting.ValueConnection"},{"sourceUnit":{"$ref":"33"},"sourceKey":"value","destinationUnit":{"$ref":"63"},"destinationKey":"b","guid":"32940685-2af1-438f-8b28-f104148adc62","$type":"Unity.VisualScripting.ValueConnection"},{"sourceUnit":{"$ref":"15"},"sourceKey":"product","destinationUnit":{"$ref":"46"},"destinationKey":"b","guid":"c2c5acac-d831-4162-ab05-e3639550f471","$type":"Unity.VisualScripting.ValueConnection"},{"sourceUnit":{"$ref":"21"},"sourceKey":"value","destinationUnit":{"$ref":"15"},"destinationKey":"a","guid":"f14f03a3-fdd7-4971-aa07-6652ba4c4c33","$type":"Unity.VisualScripting.ValueConnection"},{"sourceUnit":{"$ref":"40"},"sourceKey":"result","destinationUnit":{"$ref":"36"},"destinationKey":"input","guid":"803ed5df-846d-412d-8119-2384cde30db9","$type":"Unity.VisualScripting.ValueConnection"},{"sourceUnit":{"$ref":"50"},"sourceKey":"product","destinationUnit":{"$ref":"52"},"destinationKey":"b","guid":"84d4de6e-a745-452a-a3ce-673d3a47f2a7","$type":"Unity.VisualScripting.ValueConnection"},{"sourceUnit":{"$ref":"46"},"sourceKey":"product","destinationUnit":{"$ref":"17"},"destinationKey":"%translation","guid":"692539f9-b8a1-4179-a21d-3c41de677682","$type":"Unity.VisualScripting.ValueConnection"},{"sourceUnit":{"$ref":"59"},"sourceKey":"result","destinationUnit":{"$ref":"52"},"destinationKey":"a","guid":"3bc9fc63-fac4-4e10-a644-c1b5d079028c","$type":"Unity.VisualScripting.ValueConnection"},{"sourceUnit":{"$ref":"52"},"sourceKey":"product","destinationUnit":{"$ref":"69"},"destinationKey":"a","guid":"a45e3892-4d32-4a5c-8b3a-6269fddff11e","$type":"Unity.VisualScripting.ValueConnection"},{"sourceUnit":{"$ref":"65"},"sourceKey":"value","destinationUnit":{"$ref":"69"},"destinationKey":"b","guid":"9118eca4-d674-4142-a2c8-ac8f372ebb0a","$type":"Unity.VisualScripting.ValueConnection"},{"sourceUnit":{"$ref":"69"},"sourceKey":"product","destinationUnit":{"$ref":"71"},"destinationKey":"%yAngle","guid":"6853764f-c0d8-45aa-be24-689199f41b17","$type":"Unity.VisualScripting.ValueConnection"},{"sourceUnit":{"$ref":"79"},"sourceKey":"value","destinationUnit":{"$ref":"75"},"destinationKey":"a","guid":"ee9849fa-0bc8-49b0-9778-8b0317f5214d","$type":"Unity.VisualScripting.ValueConnection"},{"sourceUnit":{"$ref":"81"},"sourceKey":"value","destinationUnit":{"$ref":"75"},"destinationKey":"b","guid":"8ef4a19e-ebb1-47f4-89df-22b6fd2f30b2","$type":"Unity.VisualScripting.ValueConnection"},{"sourceUnit":{"$ref":"75"},"sourceKey":"product","destinationUnit":{"$ref":"77"},"destinationKey":"b","guid":"0dd77591-b551-40c6-85ca-46e84ad44d7c","$type":"Unity.VisualScripting.ValueConnection"},{"sourceUnit":{"$ref":"84"},"sourceKey":"result","destinationUnit":{"$ref":"77"},"destinationKey":"a","guid":"9386ca1c-59d6-411c-b034-0ac92095f0a0","$type":"Unity.VisualScripting.ValueConnection"},{"sourceUnit":{"$ref":"77"},"sourceKey":"product","destinationUnit":{"$ref":"92"},"destinationKey":"a","guid":"ead4fb8f-2b34-46f9-ac66-622b4c97828a","$type":"Unity.VisualScripting.ValueConnection"},{"sourceUnit":{"$ref":"88"},"sourceKey":"value","destinationUnit":{"$ref":"92"},"destinationKey":"b","guid":"b97e1ec2-0d05-4b82-bf76-32fefec47f36","$type":"Unity.VisualScripting.ValueConnection"},{"sourceUnit":{"$ref":"100"},"sourceKey":"value","destinationUnit":{"$ref":"94"},"destinationKey":"target","guid":"3b9f92d9-1baf-4d2d-8983-4b94bd0e478b","$type":"Unity.VisualScripting.ValueConnection"},{"sourceUnit":{"$ref":"92"},"sourceKey":"product","destinationUnit":{"$ref":"103"},"destinationKey":"a","guid":"cf158594-502b-48a4-b1bc-aa2aad8461ad","$type":"Unity.VisualScripting.ValueConnection"},{"sourceUnit":{"$ref":"98"},"sourceKey":"output","destinationUnit":{"$ref":"103"},"destinationKey":"b","guid":"4c2ec273-0dbd-4876-bee9-1c0abeeddd3f","$type":"Unity.VisualScripting.ValueConnection"},{"sourceUnit":{"$ref":"103"},"sourceKey":"product","destinationUnit":{"$ref":"94"},"destinationKey":"%xAngle","guid":"adf24324-d128-4fc8-ab6d-a11e8e98a328","$type":"Unity.VisualScripting.ValueConnection"}],"$version":"A"}}'
    _objectReferences: []
