%YAML 1.1
%TAG !u! tag:unity3d.com,2011:
--- !u!162 &1
EditorUserSettings:
  m_ObjectHideFlags: 0
  serializedVersion: 4
  m_ConfigSettings:
    RecentlyUsedSceneGuid-0:
      value: 5055020550575e095f575f76157a0b4442164f78752e73652c2b4b35e1b76268
      flags: 0
    RecentlyUsedSceneGuid-1:
      value: 5a05500251560d5f085c557342215d44434f1b797d2d206829791b30b5e4673a
      flags: 0
    RecentlyUsedSceneGuid-2:
      value: 5401505552035f085e565972467a0944474e412b7d71726128794e65b4e5653b
      flags: 0
    RecentlyUsedSceneGuid-3:
      value: 06040557070d0a02590d082448275e44464f417b78297062282d1837b5b2626b
      flags: 0
    RecentlyUsedSceneGuid-4:
      value: 5a5757560101590a5d0c0e24427b5d44434e4c7a7b7a23677f2b4565b7b5353a
      flags: 0
    RecentlyUsedSceneGuid-5:
      value: 0550575152065d0a54085873407a0f444e151e7e292e2534792d1967bbb16468
      flags: 0
    vcSharedLogLevel:
      value: 0d5e400f0650
      flags: 0
  m_VCAutomaticAdd: 1
  m_VCDebugCom: 0
  m_VCDebugCmd: 0
  m_VCDebugOut: 0
  m_SemanticMergeMode: 2
  m_DesiredImportWorkerCount: 5
  m_StandbyImportWorkerCount: 2
  m_IdleImportWorkerShutdownDelay: 60000
  m_VCShowFailedCheckout: 1
  m_VCOverwriteFailedCheckoutAssets: 1
  m_VCProjectOverlayIcons: 1
  m_VCHierarchyOverlayIcons: 1
  m_VCOtherOverlayIcons: 1
  m_VCAllowAsyncUpdate: 1
  m_ArtifactGarbageCollection: 1
